SA_DC_1_CaseStudy
…
Comments about Data:

state - a State in United States

word - wprd used in tweet

freq - the average frequency of that word in that state

Start of the Sentiment Analysis

# Choose the bing lexicon
get_sentiments("bing")

## # A tibble: 6,788 x 2
##    word        sentiment
##    <chr>       <chr>    
##  1 2-faced     negative 
##  2 2-faces     negative 
##  3 a+          positive 
##  4 abnormal    negative 
##  5 abolish     negative 
##  6 abominable  negative 
##  7 abominably  negative 
##  8 abominate   negative 
##  9 abomination negative 
## 10 abort       negative 
## # ... with 6,778 more rows
…
Comments : While the bing lexicon classifies words into 2 sentiments, positive or negative, there are 10 sentiments conveyed in the nrc lexicon.

# Access bing lexicon: bing
bing <- get_sentiments("bing")

# Use data frame with text data
tweets_bing<- geocoded_tweets %>%
            # With inner join, implement sentiment analysis using `bing`
              inner_join(bing)

tweets_bing

## # A tibble: 64,303 x 4
##    state   word             freq sentiment
##    <chr>   <chr>           <dbl> <chr>    
##  1 alabama abuse           7186. negative 
##  2 alabama abused          3073. negative 
##  3 alabama accomplish      5957. positive 
##  4 alabama accomplished   13121. positive 
##  5 alabama accomplishment  3036. positive 
##  6 alabama accurate       28262. positive 
##  7 alabama ache            7306. negative 
##  8 alabama aching          5080. negative 
##  9 alabama addict          5441. negative 
## 10 alabama addicted       40389. negative 
## # ... with 64,293 more rows

Comments : #We can see the average frequency and the sentiment associated with each word, that exists in both data frames.

# Access nrc lexicon: nrc
nrc <- get_sentiments("nrc")

# Use data frame with text data
tweets_nrc <- geocoded_tweets %>%
                  inner_join(nrc)

tweets_nrc

## # A tibble: 210,027 x 4
##    state   word        freq sentiment
##    <chr>   <chr>      <dbl> <chr>    
##  1 alabama abandoned  4071. anger    
##  2 alabama abandoned  4071. fear     
##  3 alabama abandoned  4071. negative 
##  4 alabama abandoned  4071. sadness  
##  5 alabama ability   12406. positive 
##  6 alabama abortion   3267. disgust  
##  7 alabama abortion   3267. fear     
##  8 alabama abortion   3267. negative 
##  9 alabama abortion   3267. sadness  
## 10 alabama absolute  22956. positive 
## # ... with 210,017 more rows
Question: What are the most common sadness words?

sad_words<- tweets_nrc %>%
            # Filter to only choose the words associated with sadness
            filter(sentiment=="sadness") %>%
            # Group by word
            group_by(word) %>%
            # Use the summarize verb to find the mean frequency
            summarize(freq = mean(freq)) %>%
            # Arrange to sort in order of descending frequency
            arrange(desc(freq))

sad_words

## # A tibble: 585 x 2
##    word        freq
##    <chr>      <dbl>
##  1 hate    1253840.
##  2 bad      984943.
##  3 bitch    787774.
##  4 hell     486259.
##  5 crazy    447047.
##  6 feeling  407562.
##  7 leave    397806.
##  8 mad      393559.
##  9 music    373608.
## 10 sick     362023.
## # ... with 575 more rows
…
Question : What are the most common joy words?

joy_words<- tweets_nrc %>%
  # Filter to only choose the words associated with sadness
  filter(sentiment=="joy") %>%
  # Group by word
  group_by(word) %>%
  # Use the summarize verb to find the mean frequency
  summarize(freq = mean(freq)) %>%
  # Arrange to sort in order of descending frequency
  arrange(desc(freq))

joy_words

## # A tibble: 463 x 2
##    word         freq
##    <chr>       <dbl>
##  1 love     3878683.
##  2 good     2826808.
##  3 happy    1477718.
##  4 birthday  841002.
##  5 god       782323.
##  6 baby      746107.
##  7 pretty    715284.
##  8 hope      699189.
##  9 fun       517207.
## 10 friend    508583.
## # ... with 453 more rows
…
Looking at Differences by State

state_data<-tweets_bing %>%
            group_by(state,sentiment) %>%
            summarize(freq=mean(freq)) %>%
            spread(sentiment,freq) %>%
            ungroup()

state_negative<-state_data %>%
          mutate(state=reorder(state,negative))

state_negative

## # A tibble: 49 x 3
##    state                negative positive
##    <fct>                   <dbl>    <dbl>
##  1 alabama                47984.   91261.
##  2 arizona                48099.   88048.
##  3 arkansas               44455.   90684.
##  4 california             43659.   81782.
##  5 colorado               41343.   79719.
##  6 connecticut            44188.   83579.
##  7 delaware               50416.   87815.
##  8 district of columbia   34284.   62429.
##  9 florida                44559.   88380.
## 10 georgia                49179.   89900.
## # ... with 39 more rows
…
state_positive<-state_data %>%
  mutate(state=reorder(state,positive))

state_positive

## # A tibble: 49 x 3
##    state                negative positive
##    <fct>                   <dbl>    <dbl>
##  1 alabama                47984.   91261.
##  2 arizona                48099.   88048.
##  3 arkansas               44455.   90684.
##  4 california             43659.   81782.
##  5 colorado               41343.   79719.
##  6 connecticut            44188.   83579.
##  7 delaware               50416.   87815.
##  8 district of columbia   34284.   62429.
##  9 florida                44559.   88380.
## 10 georgia                49179.   89900.
## # ... with 39 more rows
…
